<?xml version="1.0" encoding="UTF-8" standalone="no"?>
<!-- Created with Inkscape (http://www.inkscape.org/) -->

<svg
   xmlns:dc="http://purl.org/dc/elements/1.1/"
   xmlns:cc="http://creativecommons.org/ns#"
   xmlns:rdf="http://www.w3.org/1999/02/22-rdf-syntax-ns#"
   xmlns:svg="http://www.w3.org/2000/svg"
   xmlns="http://www.w3.org/2000/svg"
   xmlns:sodipodi="http://sodipodi.sourceforge.net/DTD/sodipodi-0.dtd"
   xmlns:inkscape="http://www.inkscape.org/namespaces/inkscape"
   width="165.42462"
   height="165.42462"
   id="svg6812"
   version="1.1"
   inkscape:version="0.48.4 r9939"
   sodipodi:docname="close.svg">
  <defs
     id="defs6814" />
  <sodipodi:namedview
     id="base"
     pagecolor="#ffffff"
     bordercolor="#666666"
     borderopacity="1.0"
     inkscape:pageopacity="0.0"
     inkscape:pageshadow="2"
     inkscape:zoom="1"
     inkscape:cx="113.07458"
     inkscape:cy="142.48556"
     inkscape:document-units="px"
     inkscape:current-layer="layer1"
     showgrid="false"
     fit-margin-top="0"
     fit-margin-left="0"
     fit-margin-right="0"
     fit-margin-bottom="0"
     inkscape:window-width="973"
     inkscape:window-height="894"
     inkscape:window-x="716"
     inkscape:window-y="83"
     inkscape:window-maximized="0" />
  <metadata
     id="metadata6817">
    <rdf:RDF>
      <cc:Work
         rdf:about="">
        <dc:format>image/svg+xml</dc:format>
        <dc:type
           rdf:resource="http://purl.org/dc/dcmitype/StillImage" />
        <dc:title></dc:title>
      </cc:Work>
    </rdf:RDF>
  </metadata>
  <g
     inkscape:label="Layer 1"
     inkscape:groupmode="layer"
     id="layer1"
     transform="translate(-256.5006,-17.845878)">
    <path
       style="fill:#000000;fill-opacity:1;stroke:none"
       d="M 31.5 0 L 0 31.5 L 51.1875 82.71875 L 0 133.90625 L 31.5 165.4375 L 82.71875 114.21875 L 133.90625 165.4375 L 165.4375 133.90625 L 114.21875 82.71875 L 165.4375 31.5 L 133.90625 0 L 82.71875 51.1875 L 31.5 0 z "
       transform="translate(256.5006,17.845878)"
       id="rect7206-4" />
  </g>
</svg>
